Semestre_6/ElectronicaCiencias/Practicas/Experimento4/raw_data/electro.4.2-circuito4.3.csv

Record Length,2500,Points,-12.6000000E-3,-179.99999225E-3,,Record Length,2500,Points,-12.6000000E-3,16.0000008E-3,
Sample Interval,9.999999747E-6,s,-12.5900004E-3,-179.99999225E-3,,Sample Interval,9.999999747E-6,s,-12.5900004E-3,8.000000380E-3,
Trigger Point,1.2600001E3,Samples,-12.5799999E-3,-199.99998808E-3,,Trigger Point,1.2600001E3,Samples,-12.5799999E-3,8.000000380E-3,
,,,-12.5700003E-3,-179.99999225E-3,,,,,-12.5700003E-3,8.000000380E-3,
,,,-12.5599997E-3,-199.99998808E-3,,,,,-12.5599997E-3,8.000000380E-3,
,,,-12.5500001E-3,-219.99999881E-3,,,,,-12.5500001E-3,8.000000380E-3,
Source,CH1,,-12.5399996E-3,-219.99999881E-3,,Source,CH2,,-12.5399996E-3,8.000000380E-3,
Vertical Units,Volts,,-12.5299999E-3,-219.99999881E-3,,Vertical Units,Volts,,-12.5299999E-3,0.0,
Vertical Scale,499.999988824E-3,,-12.5200003E-3,-239.99999464E-3,,Vertical Scale,200.00000950E-3,,-12.5200003E-3,8.000000380E-3,
Vertical Offset,0,,-12.5099998E-3,-239.99999464E-3,,Vertical Offset,0,,-12.5099998E-3,8.000000380E-3,
Horizontal Units,s,,-12.5000002E-3,-259.99999046E-3,,Horizontal Units,s,,-12.5000002E-3,8.000000380E-3,
Horizontal Scale,2.4999999E-3,,-12.4899996E-3,-259.99999046E-3,,Horizontal Scale,2.4999999E-3,,-12.4899996E-3,0.0,
Pt Fmt,Y,,-12.4800000E-3,-259.99999046E-3,,Pt Fmt,Y,,-12.4800000E-3,0.0,
Yzero,0.0,,-12.4700004E-3,-280.00000119E-3,,Yzero,-40.00000000E-3,,-12.4700004E-3,0.0,
Probe Atten,1.000000,,-12.4599999E-3,-280.00000119E-3,,Probe Atten,1.000000,,-12.4599999E-3,0.0,
,,,-12.4500003E-3,-280.00000119E-3,,,,,-12.4500003E-3,0.0,
Note, - 4:36:03 p. m.   28/09/2023,,-12.4399997E-3,-280.00000119E-3,,Note, - 4:36:03 p. m.   28/09/2023,,-12.4399997E-3,8.000000380E-3,
,,,-12.4300001E-3,-280.00000119E-3,,,,,-12.4300001E-3,0.0,
,,,-12.4199996E-3,-299.99998212E-3,,,,,-12.4199996E-3,8.000000380E-3,
,,,-12.4100000E-3,-280.00000119E-3,,,,,-12.4100000E-3,0.0,
,,,-12.4000004E-3,-299.99998212E-3,,,,,-12.4000004E-3,0.0,
,,,-12.3899998E-3,-340.00000358E-3,,,,,-12.3899998E-3,0.0,
,,,-12.3800002E-3,-299.99998212E-3,,,,,-12.3800002E-3,0.0,
,,,-12.3699997E-3,-299.99998212E-3,,,,,-12.3699997E-3,0.0,
,,,-12.3600001E-3,-319.99999285E-3,,,,,-12.3600001E-3,0.0,
,,,-12.3500004E-3,-319.99999285E-3,,,,,-12.3500004E-3,0.0,
,,,-12.3399999E-3,-340.00000358E-3,,,,,-12.3399999E-3,-8.000000380E-3,
,,,-12.3300003E-3,-319.99999285E-3,,,,,-12.3300003E-3,-16.0000008E-3,
,,,-12.3199997E-3,-340.00000358E-3,,,,,-12.3199997E-3,-8.000000380E-3,
,,,-12.3100001E-3,-359.99998450E-3,,,,,-12.3100001E-3,-8.000000380E-3,
,,,-12.2999996E-3,-359.99998450E-3,,,,,-12.2999996E-3,-8.000000380E-3,
,,,-12.2900000E-3,-359.99998450E-3,,,,,-12.2900000E-3,-8.000000380E-3,
,,,-12.2800004E-3,-359.99998450E-3,,,,,-12.2800004E-3,-16.0000008E-3,
,,,-12.2699998E-3,-359.99998450E-3,,,,,-12.2699998E-3,-16.0000008E-3,
,,,-12.2600002E-3,-359.99998450E-3,,,,,-12.2600002E-3,-16.0000008E-3,
,,,-12.2499997E-3,-379.99999523E-3,,,,,-12.2499997E-3,-16.0000008E-3,
,,,-12.2400001E-3,-359.99998450E-3,,,,,-12.2400001E-3,-16.0000008E-3,
,,,-12.2300005E-3,-379.99999523E-3,,,,,-12.2300005E-3,-8.000000380E-3,
,,,-12.2199999E-3,-379.99999523E-3,,,,,-12.2199999E-3,-8.000000380E-3,
,,,-12.2100003E-3,-379.99999523E-3,,,,,-12.2100003E-3,-8.000000380E-3,
,,,-12.1999998E-3,-399.99997616E-3,,,,,-12.1999998E-3,-16.0000008E-3,
,,,-12.1900002E-3,-419.999986887E-3,,,,,-12.1900002E-3,-16.0000008E-3,
,,,-12.1799996E-3,-399.99997616E-3,,,,,-12.1799996E-3,-16.0000008E-3,
,,,-12.1700000E-3,-399.99997616E-3,,,,,-12.1700000E-3,-16.0000008E-3,
,,,-12.1600004E-3,-419.999986887E-3,,,,,-12.1600004E-3,-16.0000008E-3,
,,,-12.1499998E-3,-419.999986887E-3,,,,,-12.1499998E-3,-16.0000008E-3,
,,,-12.1400002E-3,-419.999986887E-3,,,,,-12.1400002E-3,-24.00000021E-3,
,,,-12.1299997E-3,-419.999986887E-3,,,,,-12.1299997E-3,-16.0000008E-3,
,,,-12.1200001E-3,-419.999986887E-3,,,,,-12.1200001E-3,-24.00000021E-3,
,,,-12.1100005E-3,-439.999997616E-3,,,,,-12.1100005E-3,-16.0000008E-3,
,,,-12.0999999E-3,-419.999986887E-3,,,,,-12.0999999E-3,-24.00000021E-3,
,,,-12.0900003E-3,-439.999997616E-3,,,,,-12.0900003E-3,-24.00000021E-3,
,,,-12.0799998E-3,-439.999997616E-3,,,,,-12.0799998E-3,-24.00000021E-3,
,,,-12.0700002E-3,-439.999997616E-3,,,,,-12.0700002E-3,-24.00000021E-3,
,,,-12.0599996E-3,-439.999997616E-3,,,,,-12.0599996E-3,-24.00000021E-3,
,,,-12.0500000E-3,-439.999997616E-3,,,,,-12.0500000E-3,-24.00000021E-3,
,,,-12.0400004E-3,-459.999978542E-3,,,,,-12.0400004E-3,-24.00000021E-3,
,,,-12.0299999E-3,-439.999997616E-3,,,,,-12.0299999E-3,-24.00000021E-3,
,,,-12.0200003E-3,-459.999978542E-3,,,,,-12.0200003E-3,-24.00000021E-3,
,,,-12.0099997E-3,-459.999978542E-3,,,,,-12.0099997E-3,-24.00000021E-3,
,,,-12.0000001E-3,-459.999978542E-3,,,,,-12.0000001E-3,-24.00000021E-3,
,,,-11.9900005E-3,-500.000000000E-3,,,,,-11.9900005E-3,-24.00000021E-3,
,,,-11.9800000E-3,-459.999978542E-3,,,,,-11.9800000E-3,-24.00000021E-3,
,,,-11.9700003E-3,-479.999989271E-3,,,,,-11.9700003E-3,-24.00000021E-3,
,,,-11.9599998E-3,-479.999989271E-3,,,,,-11.9599998E-3,-24.00000021E-3,
,,,-11.9500002E-3,-479.999989271E-3,,,,,-11.9500002E-3,-24.00000021E-3,
,,,-11.9399996E-3,-479.999989271E-3,,,,,-11.9399996E-3,-32.00000152E-3,
,,,-11.9300000E-3,-479.999989271E-3,,,,,-11.9300000E-3,-32.00000152E-3,
,,,-11.9200004E-3,-479.999989271E-3,,,,,-11.9200004E-3,-24.00000021E-3,
,,,-11.9099999E-3,-500.000000000E-3,,,,,-11.9099999E-3,-32.00000152E-3,
,,,-11.9000003E-3,-500.000000000E-3,,,,,-11.9000003E-3,-32.00000152E-3,
,,,-11.8899997E-3,-479.999989271E-3,,,,,-11.8899997E-3,-32.00000152E-3,
,,,-11.8800001E-3,-500.000000000E-3,,,,,-11.8800001E-3,-32.00000152E-3,
,,,-11.8699996E-3,-500.000000000E-3,,,,,-11.8699996E-3,-32.00000152E-3,
,,,-11.8600000E-3,-500.000000000E-3,,,,,-11.8600000E-3,-32.00000152E-3,
,,,-11.8500004E-3,-500.000000000E-3,,,,,-11.8500004E-3,-32.00000152E-3,
,,,-11.8399998E-3,-500.000000000E-3,,,,,-11.8399998E-3,-32.00000152E-3,
,,,-11.8300002E-3,-519.999980927E-3,,,,,-11.8300002E-3,-32.00000152E-3,
,,,-11.8199997E-3,-500.000000000E-3,,,,,-11.8199997E-3,-32.00000152E-3,
,,,-11.8100001E-3,-539.999961853E-3,,,,,-11.8100001E-3,-32.00000152E-3,
,,,-11.8000004E-3,-519.999980927E-3,,,,,-11.8000004E-3,-32.00000152E-3,
,,,-11.7899999E-3,-519.999980927E-3,,,,,-11.7899999E-3,-40.00000283E-3,
,,,-11.7800003E-3,-519.999980927E-3,,,,,-11.7800003E-3,-40.00000283E-3,
,,,-11.7699997E-3,-500.000000000E-3,,,,,-11.7699997E-3,-32.00000152E-3,
,,,-11.7600001E-3,-519.999980927E-3,,,,,-11.7600001E-3,-40.00000283E-3,
,,,-11.7499996E-3,-519.999980927E-3,,,,,-11.7499996E-3,-32.00000152E-3,
,,,-11.7400000E-3,-519.999980927E-3,,,,,-11.7400000E-3,-40.00000283E-3,
,,,-11.7300004E-3,-500.000000000E-3,,,,,-11.7300004E-3,-32.00000152E-3,
,,,-11.7199998E-3,-519.999980927E-3,,,,,-11.7199998E-3,-32.00000152E-3,
,,,-11.7100002E-3,-519.999980927E-3,,,,,-11.7100002E-3,-40.00000283E-3,
,,,-11.6999997E-3,-539.999961853E-3,,,,,-11.6999997E-3,-40.00000283E-3,
,,,-11.6900001E-3,-519.999980927E-3,,,,,-11.6900001E-3,-40.00000283E-3,
,,,-11.6800005E-3,-500.000000000E-3,,,,,-11.6800005E-3,-32.00000152E-3,
,,,-11.6699999E-3,-519.999980927E-3,,,,,-11.6699999E-3,-40.00000283E-3,
,,,-11.6600003E-3,-519.999980927E-3,,,,,-11.6600003E-3,-40.00000283E-3,
,,,-11.6499998E-3,-539.999961853E-3,,,,,-11.6499998E-3,-32.00000152E-3,
,,,-11.6400002E-3,-539.999961853E-3,,,,,-11.6400002E-3,-40.00000283E-3,
,,,-11.6299996E-3,-519.999980927E-3,,,,,-11.6299996E-3,-40.00000283E-3,
,,,-11.6200000E-3,-519.999980927E-3,,,,,-11.6200000E-3,-40.00000283E-3,
,,,-11.6100004E-3,-519.999980927E-3,,,,,-11.6100004E-3,-40.00000283E-3,
,,,-11.5999999E-3,-539.999961853E-3,,,,,-11.5999999E-3,-40.00000283E-3,
,,,-11.5900002E-3,-539.999961853E-3,,,,,-11.5900002E-3,-40.00000283E-3,
,,,-11.5799997E-3,-500.000000000E-3,,,,,-11.5799997E-3,-32.00000152E-3,
,,,-11.5700001E-3,-519.999980927E-3,,,,,-11.5700001E-3,-40.00000283E-3,
,,,-11.5600005E-3,-519.999980927E-3,,,,,-11.5600005E-3,-40.00000283E-3,
,,,-11.5499999E-3,-539.999961853E-3,,,,,-11.5499999E-3,-48.00000042E-3,
,,,-11.5400003E-3,-519.999980927E-3,,,,,-11.5400003E-3,-40.00000283E-3,
,,,-11.5299998E-3,-539.999961853E-3,,,,,-11.5299998E-3,-40.00000283E-3,
,,,-11.5200002E-3,-519.999980927E-3,,,,,-11.5200002E-3,-48.00000042E-3,
,,,-11.5099996E-3,-519.999980927E-3,,,,,-11.5099996E-3,-40.00000283E-3,
,,,-11.5000000E-3,-519.999980927E-3,,,,,-11.5000000E-3,-40.00000283E-3,
,,,-11.4900004E-3,-539.999961853E-3,,,,,-11.4900004E-3,-40.00000283E-3,
,,,-11.4799999E-3,-519.999980927E-3,,,,,-11.4799999E-3,-40.00000283E-3,
,,,-11.4700003E-3,-519.999980927E-3,,,,,-11.4700003E-3,-40.00000283E-3,
,,,-11.4599997E-3,-500.000000000E-3,,,,,-11.4599997E-3,-40.00000283E-3,
,,,-11.4500001E-3,-500.000000000E-3,,,,,-11.4500001E-3,-40.00000283E-3,
,,,-11.4400005E-3,-500.000000000E-3,,,,,-11.4400005E-3,-40.00000283E-3,
,,,-11.4300000E-3,-500.000000000E-3,,,,,-11.4300000E-3,-32.00000152E-3,
,,,-11.4200003E-3,-500.000000000E-3,,,,,-11.4200003E-3,-40.00000283E-3,
,,,-11.4099998E-3,-500.000000000E-3,,,,,-11.4099998E-3,-40.00000283E-3,
,,,-11.4000002E-3,-519.999980927E-3,,,,,-11.4000002E-3,-40.00000283E-3,
,,,-11.3899997E-3,-519.999980927E-3,,,,,-11.3899997E-3,-40.00000283E-3,
,,,-11.3800000E-3,-519.999980927E-3,,,,,-11.3800000E-3,-40.00000283E-3,
,,,-11.3700004E-3,-500.000000000E-3,,,,,-11.3700004E-3,-48.00000042E-3,
,,,-11.3599999E-3,-519.999980927E-3,,,,,-11.3599999E-3,-40.00000283E-3,
,,,-11.3500003E-3,-500.000000000E-3,,,,,-11.3500003E-3,-40.00000283E-3,
,,,-11.3399997E-3,-500.000000000E-3,,,,,-11.3399997E-3,-48.00000042E-3,
,,,-11.3300001E-3,-519.999980927E-3,,,,,-11.3300001E-3,-48.00000042E-3,
,,,-11.3200005E-3,-500.000000000E-3,,,,,-11.3200005E-3,-40.00000283E-3,
,,,-11.3100000E-3,-500.000000000E-3,,,,,-11.3100000E-3,-40.00000283E-3,
,,,-11.3000004E-3,-479.999989271E-3,,,,,-11.3000004E-3,-40.00000283E-3,
,,,-11.2899998E-3,-479.999989271E-3,,,,,-11.2899998E-3,-40.00000283E-3,
,,,-11.2800002E-3,-479.999989271E-3,,,,,-11.2800002E-3,-40.00000283E-3,
,,,-11.2699997E-3,-500.000000000E-3,,,,,-11.2699997E-3,-48.00000042E-3,
,,,-11.2600001E-3,-479.999989271E-3,,,,,-11.2600001E-3,-40.00000283E-3,
,,,-11.2500004E-3,-459.999978542E-3,,,,,-11.2500004E-3,-40.00000283E-3,
,,,-11.2399999E-3,-459.999978542E-3,,,,,-11.2399999E-3,-40.00000283E-3,
,,,-11.2300003E-3,-459.999978542E-3,,,,,-11.2300003E-3,-40.00000283E-3,
,,,-11.2199998E-3,-479.999989271E-3,,,,,-11.2199998E-3,-40.00000283E-3,
,,,-11.2100001E-3,-479.999989271E-3,,,,,-11.2100001E-3,-48.00000042E-3,
,,,-11.1999996E-3,-459.999978542E-3,,,,,-11.1999996E-3,-40.00000283E-3,
,,,-11.1900000E-3,-439.999997616E-3,,,,,-11.1900000E-3,-40.00000283E-3,
,,,-11.1800004E-3,-459.999978542E-3,,,,,-11.1800004E-3,-48.00000042E-3,
,,,-11.1699998E-3,-459.999978542E-3,,,,,-11.1699998E-3,-48.00000042E-3,
,,,-11.1600002E-3,-439.999997616E-3,,,,,-11.1600002E-3,-48.00000042E-3,
,,,-11.1499997E-3,-439.999997616E-3,,,,,-11.1499997E-3,-48.00000042E-3,
,,,-11.1400001E-3,-419.999986887E-3,,,,,-11.1400001E-3,-40.00000283E-3,
,,,-11.1300005E-3,-439.999997616E-3,,,,,-11.1300005E-3,-48.00000042E-3,
,,,-11.1199999E-3,-419.999986887E-3,,,,,-11.1199999E-3,-32.00000152E-3,
,,,-11.1100003E-3,-439.999997616E-3,,,,,-11.1100003E-3,-48.00000042E-3,
,,,-11.0999998E-3,-419.999986887E-3,,,,,-11.0999998E-3,-40.00000283E-3,
,,,-11.0900002E-3,-419.999986887E-3,,,,,-11.0900002E-3,-40.00000283E-3,
,,,-11.0799996E-3,-419.999986887E-3,,,,,-11.0799996E-3,-40.00000283E-3,
,,,-11.0700000E-3,-419.999986887E-3,,,,,-11.0700000E-3,-48.00000042E-3,
,,,-11.0600004E-3,-399.99997616E-3,,,,,-11.0600004E-3,-48.00000042E-3,
,,,-11.0499999E-3,-419.999986887E-3,,,,,-11.0499999E-3,-40.00000283E-3,
,,,-11.0400002E-3,-399.99997616E-3,,,,,-11.0400002E-3,-40.00000283E-3,
,,,-11.0299997E-3,-379.99999523E-3,,,,,-11.0299997E-3,-40.00000283E-3,
,,,-11.0200001E-3,-379.99999523E-3,,,,,-11.0200001E-3,-40.00000283E-3,
,,,-11.0100005E-3,-399.99997616E-3,,,,,-11.0100005E-3,-40.00000283E-3,
,,,-10.9999999E-3,-379.99999523E-3,,,,,-10.9999999E-3,-40.00000283E-3,
,,,-10.9900003E-3,-379.99999523E-3,,,,,-10.9900003E-3,-40.00000283E-3,
,,,-10.9799998E-3,-379.99999523E-3,,,,,-10.9799998E-3,-48.00000042E-3,
,,,-10.9700002E-3,-379.99999523E-3,,,,,-10.9700002E-3,-40.00000283E-3,
,,,-10.9599996E-3,-359.99998450E-3,,,,,-10.9599996E-3,-40.00000283E-3,
,,,-10.9500000E-3,-359.99998450E-3,,,,,-10.9500000E-3,-40.00000283E-3,
,,,-10.9400004E-3,-359.99998450E-3,,,,,-10.9400004E-3,-40.00000283E-3,
,,,-10.9299999E-3,-340.00000358E-3,,,,,-10.9299999E-3,-40.00000283E-3,
,,,-10.9200003E-3,-340.00000358E-3,,,,,-10.9200003E-3,-40.00000283E-3,
,,,-10.9099997E-3,-359.99998450E-3,,,,,-10.9099997E-3,-32.00000152E-3,
,,,-10.9000001E-3,-340.00000358E-3,,,,,-10.9000001E-3,-40.00000283E-3,
,,,-10.8900005E-3,-340.00000358E-3,,,,,-10.8900005E-3,-40.00000283E-3,
,,,-10.8800000E-3,-319.99999285E-3,,,,,-10.8800000E-3,-40.00000283E-3,
,,,-10.8700003E-3,-319.99999285E-3,,,,,-10.8700003E-3,-32.00000152E-3,
,,,-10.8599998E-3,-340.00000358E-3,,,,,-10.8599998E-3,-40.00000283E-3,
,,,-10.8500002E-3,-319.99999285E-3,,,,,-10.8500002E-3,-40.00000283E-3,
,,,-10.8399997E-3,-299.99998212E-3,,,,,-10.8399997E-3,-40.00000283E-3,
,,,-10.8300000E-3,-299.99998212E-3,,,,,-10.8300000E-3,-40.00000283E-3,
,,,-10.8200004E-3,-280.00000119E-3,,,,,-10.8200004E-3,-32.00000152E-3,
,,,-10.8099999E-3,-280.00000119E-3,,,,,-10.8099999E-3,-32.00000152E-3,
,,,-10.8000003E-3,-280.00000119E-3,,,,,-10.8000003E-3,-32.00000152E-3,
,,,-10.7899997E-3,-280.00000119E-3,,,,,-10.7899997E-3,-40.00000283E-3,
,,,-10.7800001E-3,-259.99999046E-3,,,,,-10.7800001E-3,-32.00000152E-3,
,,,-10.7700005E-3,-259.99999046E-3,,,,,-10.7700005E-3,-40.00000283E-3,
,,,-10.7600000E-3,-259.99999046E-3,,,,,-10.7600000E-3,-32.00000152E-3,
,,,-10.7500004E-3,-259.99999046E-3,,,,,-10.7500004E-3,-32.00000152E-3,
,,,-10.7399998E-3,-259.99999046E-3,,,,,-10.7399998E-3,-40.00000283E-3,
,,,-10.7300002E-3,-239.99999464E-3,,,,,-10.7300002E-3,-40.00000283E-3,
,,,-10.7199997E-3,-219.99999881E-3,,,,,-10.7199997E-3,-32.00000152E-3,
,,,-10.7100001E-3,-239.99999464E-3,,,,,-10.7100001E-3,-40.00000283E-3,
,,,-10.7000005E-3,-239.99999464E-3,,,,,-10.7000005E-3,-32.00000152E-3,
,,,-10.6899999E-3,-199.99998808E-3,,,,,-10.6899999E-3,-32.00000152E-3,
,,,-10.6800003E-3,-199.99998808E-3,,,,,-10.6800003E-3,-32.00000152E-3,
,,,-10.6699998E-3,-199.99998808E-3,,,,,-10.6699998E-3,-32.00000152E-3,
,,,-10.6600001E-3,-199.99998808E-3,,,,,-10.6600001E-3,-32.00000152E-3,
,,,-10.6499996E-3,-199.99998808E-3,,,,,-10.6499996E-3,-32.00000152E-3,
,,,-10.6400000E-3,-199.99998808E-3,,,,,-10.6400000E-3,-24.00000021E-3,
,,,-10.6300004E-3,-179.99999225E-3,,,,,-10.6300004E-3,-24.00000021E-3,
,,,-10.6199998E-3,-179.99999225E-3,,,,,-10.6199998E-3,-32.00000152E-3,
,,,-10.6100002E-3,-179.99999225E-3,,,,,-10.6100002E-3,-32.00000152E-3,
,,,-10.5999997E-3,-199.99998808E-3,,,,,-10.5999997E-3,-32.00000152E-3,
,,,-10.5900001E-3,-179.99999225E-3,,,,,-10.5900001E-3,-24.00000021E-3,
,,,-10.5800005E-3,-159.99999642E-3,,,,,-10.5800005E-3,-24.00000021E-3,
,,,-10.5699999E-3,-140.0000006E-3,,,,,-10.5699999E-3,-24.00000021E-3,
,,,-10.5600003E-3,-140.0000006E-3,,,,,-10.5600003E-3,-32.00000152E-3,
,,,-10.5499998E-3,-140.0000006E-3,,,,,-10.5499998E-3,-24.00000021E-3,
,,,-10.5400002E-3,-119.9999973E-3,,,,,-10.5400002E-3,-24.00000021E-3,
,,,-10.5299996E-3,-119.9999973E-3,,,,,-10.5299996E-3,-24.00000021E-3,
,,,-10.5200000E-3,-99.999994040E-3,,,,,-10.5200000E-3,-24.00000021E-3,
,,,-10.5100004E-3,-119.9999973E-3,,,,,-10.5100004E-3,-24.00000021E-3,
,,,-10.4999999E-3,-99.999994040E-3,,,,,-10.4999999E-3,-24.00000021E-3,
,,,-10.4900002E-3,-99.999994040E-3,,,,,-10.4900002E-3,-24.00000021E-3,
,,,-10.4799997E-3,-79.999998212E-3,,,,,-10.4799997E-3,-24.00000021E-3,
,,,-10.4700001E-3,-79.999998212E-3,,,,,-10.4700001E-3,-24.00000021E-3,
,,,-10.4600005E-3,-79.999998212E-3,,,,,-10.4600005E-3,-24.00000021E-3,
,,,-10.4499999E-3,-79.999998212E-3,,,,,-10.4499999E-3,-16.0000008E-3,
,,,-10.4400003E-3,-59.999998659E-3,,,,,-10.4400003E-3,-24.00000021E-3,
,,,-10.4299998E-3,-59.999998659E-3,,,,,-10.4299998E-3,-16.0000008E-3,
,,,-10.4200002E-3,-59.999998659E-3,,,,,-10.4200002E-3,-16.0000008E-3,
,,,-10.4099996E-3,-39.99999911E-3,,,,,-10.4099996E-3,-24.00000021E-3,
,,,-10.4000000E-3,-59.999998659E-3,,,,,-10.4000000E-3,-16.0000008E-3,
,,,-10.3900004E-3,-39.99999911E-3,,,,,-10.3900004E-3,-16.0000008E-3,
,,,-10.3799999E-3,-19.9999996E-3,,,,,-10.3799999E-3,-16.0000008E-3,
,,,-10.3700003E-3,-39.99999911E-3,,,,,-10.3700003E-3,-16.0000008E-3,
,,,-10.3599997E-3,-19.9999996E-3,,,,,-10.3599997E-3,-16.0000008E-3,
,,,-10.3500001E-3,0.0,,,,,-10.3500001E-3,-16.0000008E-3,
,,,-10.3400005E-3,19.9999996E-3,,,,,-10.3400005E-3,-16.0000008E-3,
,,,-10.3300000E-3,19.9999996E-3,,,,,-10.3300000E-3,-16.0000008E-3,
,,,-10.3200004E-3,0.0,,,,,-10.3200004E-3,-8.000000380E-3,
,,,-10.3099998E-3,19.9999996E-3,,,,,-10.3099998E-3,-8.000000380E-3,
,,,-10.3000002E-3,19.9999996E-3,,,,,-10.3000002E-3,-16.0000008E-3,
,,,-10.2899997E-3,19.9999996E-3,,,,,-10.2899997E-3,-16.0000008E-3,
,,,-10.2800000E-3,39.99999911E-3,,,,,-10.2800000E-3,-16.0000008E-3,
,,,-10.2700004E-3,39.99999911E-3,,,,,-10.2700004E-3,-16.0000008E-3,
,,,-10.2599999E-3,59.999998659E-3,,,,,-10.2599999E-3,-8.000000380E-3,
,,,-10.2500003E-3,59.999998659E-3,,,,,-10.2500003E-3,-8.000000380E-3,
,,,-10.2399997E-3,79.999998212E-3,,,,,-10.2399997E-3,-16.0000008E-3,
,,,-10.2300001E-3,59.999998659E-3,,,,,-10.2300001E-3,-16.0000008E-3,
,,,-10.2200005E-3,79.999998212E-3,,,,,-10.2200005E-3,-8.000000380E-3,
,,,-10.2100000E-3,79.999998212E-3,,,,,-10.2100000E-3,0.0,
,,,-10.2000004E-3,79.999998212E-3,,,,,-10.2000004E-3,-8.000000380E-3,
,,,-10.1899998E-3,79.999998212E-3,,,,,-10.1899998E-3,-8.000000380E-3,
,,,-10.1800002E-3,99.999994040E-3,,,,,-10.1800002E-3,-8.000000380E-3,
,,,-10.1699997E-3,119.9999973E-3,,,,,-10.1699997E-3,0.0,
,,,-10.1600001E-3,119.9999973E-3,,,,,-10.1600001E-3,-8.000000380E-3,
,,,-10.1500005E-3,119.9999973E-3,,,,,-10.1500005E-3,-8.000000380E-3,
,,,-10.1399999E-3,119.9999973E-3,,,,,-10.1399999E-3,-8.000000380E-3,
,,,-10.1300003E-3,140.0000006E-3,,,,,-10.1300003E-3,0.0,
,,,-10.1199998E-3,159.99999642E-3,,,,,-10.1199998E-3,0.0,
,,,-10.1100001E-3,140.0000006E-3,,,,,-10.1100001E-3,0.0,
,,,-10.1000005E-3,159.99999642E-3,,,,,-10.1000005E-3,0.0,
,,,-10.0900000E-3,140.0000006E-3,,,,,-10.0900000E-3,0.0,
,,,-10.0800004E-3,159.99999642E-3,,,,,-10.0800004E-3,0.0,
,,,-10.0699998E-3,159.99999642E-3,,,,,-10.0699998E-3,0.0,
,,,-10.0600002E-3,179.99999225E-3,,,,,-10.0600002E-3,0.0,
,,,-10.0499997E-3,199.99998808E-3,,,,,-10.0499997E-3,0.0,
,,,-10.0400001E-3,179.99999225E-3,,,,,-10.0400001E-3,0.0,
,,,-10.0300005E-3,199.99998808E-3,,,,,-10.0300005E-3,0.0,
,,,-10.0199999E-3,179.99999225E-3,,,,,-10.0199999E-3,0.0,
,,,-10.0100003E-3,199.99998808E-3,,,,,-10.0100003E-3,8.000000380E-3,
,,,-9.999999776E-3,199.99998808E-3,,,,,-9.999999776E-3,8.000000380E-3,
,,,-9.990000166E-3,219.99999881E-3,,,,,-9.990000166E-3,8.000000380E-3,
,,,-9.979999624E-3,219.99999881E-3,,,,,-9.979999624E-3,0.0,
,,,-9.970000014E-3,239.99999464E-3,,,,,-9.970000014E-3,8.000000380E-3,
,,,-9.960000403E-3,259.99999046E-3,,,,,-9.960000403E-3,8.000000380E-3,
,,,-9.949999861E-3,219.99999881E-3,,,,,-9.949999861E-3,16.0000008E-3,
,,,-9.940000251E-3,219.99999881E-3,,,,,-9.940000251E-3,8.000000380E-3,
,,,-9.929999709E-3,219.99999881E-3,,,,,-9.929999709E-3,8.000000380E-3,
,,,-9.920000099E-3,239.99999464E-3,,,,,-9.920000099E-3,16.0000008E-3,
,,,-9.910000488E-3,280.00000119E-3,,,,,-9.910000488E-3,8.000000380E-3,
,,,-9.899999946E-3,259.99999046E-3,,,,,-9.899999946E-3,16.0000008E-3,
,,,-9.890000336E-3,280.00000119E-3,,,,,-9.890000336E-3,8.000000380E-3,
,,,-9.879999794E-3,280.00000119E-3,,,,,-9.879999794E-3,16.0000008E-3,
,,,-9.870000184E-3,280.00000119E-3,,,,,-9.870000184E-3,16.0000008E-3,
,,,-9.859999642E-3,280.00000119E-3,,,,,-9.859999642E-3,16.0000008E-3,
,,,-9.850000031E-3,299.99998212E-3,,,,,-9.850000031E-3,8.000000380E-3,
,,,-9.840000421E-3,299.99998212E-3,,,,,-9.840000421E-3,16.0000008E-3,
,,,-9.829999879E-3,299.99998212E-3,,,,,-9.829999879E-3,16.0000008E-3,
,,,-9.820000269E-3,299.99998212E-3,,,,,-9.820000269E-3,16.0000008E-3,
